<svg width="532" height="329" viewBox="0 0 532 329" fill="none" xmlns="http://www.w3.org/2000/svg">
<path d="M514.367 118.742L516.727 119.383C517.006 118.543 517.26 117.692 517.526 116.846L528.182 119.421L520.118 102.383L504.451 113.687L515.146 116.271C514.887 117.095 514.639 117.924 514.367 118.742Z" fill="#E0AA00"/>
<path d="M425.71 224.094L424.026 222.674C420.61 224.646 417.068 226.586 413.498 228.44L415.104 229.903C418.7 228.035 422.268 226.08 425.71 224.094Z" fill="#E0AA00"/>
<path d="M404.077 235.324L402.553 233.822C398.855 235.543 395.038 237.222 391.211 238.812L392.651 240.351C396.507 238.75 400.351 237.058 404.077 235.324Z" fill="#E0AA00"/>
<path d="M380.85 244.974L379.497 243.4C375.545 244.857 371.486 246.262 367.433 247.577L368.696 249.182C372.779 247.857 376.868 246.441 380.85 244.974Z" fill="#E0AA00"/>
<path d="M445.578 211.361L443.748 210.036C440.634 212.249 437.393 214.435 434.117 216.535L435.875 217.91C439.176 215.794 442.441 213.591 445.578 211.361Z" fill="#E0AA00"/>
<path d="M356.213 252.967L355.042 251.335C350.871 252.514 346.599 253.635 342.347 254.666L343.423 256.323C347.708 255.284 352.011 254.155 356.213 252.967Z" fill="#E0AA00"/>
<path d="M463.519 197.222L461.556 196.001C458.769 198.44 455.857 200.858 452.901 203.187L454.799 204.462C457.778 202.115 460.711 199.68 463.519 197.222Z" fill="#E0AA00"/>
<path d="M496.743 155.525L498.97 156.442C500.844 153.515 502.644 150.506 504.32 147.499L502.053 146.648C500.389 149.633 498.603 152.62 496.743 155.525Z" fill="#E0AA00"/>
<path d="M330.354 259.242L329.374 257.563C325.027 258.451 320.578 259.278 316.148 260.02L317.029 261.718C321.493 260.97 325.975 260.137 330.354 259.242Z" fill="#E0AA00"/>
<path d="M506.764 137.547L509.067 138.329C510.538 135.256 511.93 132.102 513.203 128.953L510.869 128.241C509.606 131.365 508.224 134.496 506.764 137.547Z" fill="#E0AA00"/>
<path d="M479.381 181.777L477.3 180.671C474.868 183.314 472.309 185.945 469.695 188.491L471.719 189.656C474.353 187.091 476.932 184.44 479.381 181.777Z" fill="#E0AA00"/>
<path d="M493.029 165.141L490.845 164.16C488.785 166.991 486.602 169.816 484.354 172.555L486.489 173.6C488.753 170.841 490.953 167.995 493.029 165.141Z" fill="#E0AA00"/>
<path d="M161.296 257.164C156.581 256.258 151.794 255.266 147.076 254.209L146.694 255.864C151.446 256.928 156.269 257.928 161.018 258.84L161.296 257.164Z" fill="#E0AA00"/>
<path d="M303.473 263.745L302.693 262.033C298.188 262.627 293.594 263.153 289.038 263.596L289.717 265.32C294.307 264.874 298.935 264.344 303.473 263.745Z" fill="#E0AA00"/>
<path d="M105.12 242.8C100.552 241.328 95.9573 239.768 91.4641 238.164L90.6705 239.7C95.1967 241.316 99.8255 242.887 104.429 244.37L105.12 242.8Z" fill="#E0AA00"/>
<path d="M78.0159 233.123C73.5944 231.386 69.1487 229.557 64.8048 227.687L63.8105 229.145C68.1869 231.028 72.6652 232.87 77.1206 234.621L78.0159 233.123Z" fill="#E0AA00"/>
<path d="M51.8598 221.867C47.6136 219.875 43.3543 217.791 39.2013 215.673L38.0139 217.039C42.1988 219.173 46.489 221.273 50.7675 223.28L51.8598 221.867Z" fill="#E0AA00"/>
<path d="M132.955 250.826C128.279 249.632 123.571 248.351 118.96 247.022L118.37 248.623C123.016 249.963 127.76 251.253 132.469 252.456L132.955 250.826Z" fill="#E0AA00"/>
<path d="M189.843 263.475L189.908 261.764C185.159 261.149 180.338 260.45 175.582 259.685L175.409 261.38C180.202 262.151 185.058 262.855 189.843 263.475Z" fill="#E0AA00"/>
<path d="M247.472 267.295L247.108 265.556C242.401 265.545 237.615 265.457 232.881 265.294L233.138 267.03C237.907 267.195 242.73 267.284 247.472 267.295Z" fill="#E0AA00"/>
<path d="M275.788 266.438L275.213 264.705C270.594 264.998 265.892 265.218 261.239 265.36L261.708 267.097C266.397 266.955 271.134 266.733 275.788 266.438Z" fill="#E0AA00"/>
<path d="M218.735 266.305L218.586 264.573C213.841 264.258 209.018 263.862 204.253 263.395L204.294 265.118C209.096 265.588 213.955 265.988 218.735 266.305Z" fill="#E0AA00"/>
<path d="M5.72373 197.66L16.1204 214.268L22.2801 208.577C23.3416 209.177 24.3954 209.783 25.4583 210.371L26.7402 209.054C25.7023 208.48 24.6803 207.892 23.6507 207.311L29.7812 201.647L5.72373 197.66Z" fill="#E0AA00"/>
</svg>
