<svg width="48" height="44" viewBox="0 0 48 44" fill="none" xmlns="http://www.w3.org/2000/svg">
<circle cx="18.8571" cy="24.8571" r="17.8571" stroke="#E0AA00" stroke-width="2"/>
<mask id="path-2-inside-1_640_596" fill="white">
<path d="M48 6L23.4285 30.4286L11.1428 18.2148"/>
</mask>
<path d="M49.41 7.41833C50.1934 6.63956 50.1971 5.37324 49.4183 4.58992C48.6395 3.80659 47.3732 3.8029 46.5899 4.58167L49.41 7.41833ZM23.4285 30.4286L22.0185 31.8469C22.7986 32.6225 24.0585 32.6224 24.8386 31.8469L23.4285 30.4286ZM12.5529 16.7965C11.7695 16.0177 10.5032 16.0214 9.72446 16.8048C8.94571 17.5881 8.94943 18.8544 9.73277 19.6332L12.5529 16.7965ZM46.5899 4.58167L22.0185 29.0102L24.8386 31.8469L49.41 7.41833L46.5899 4.58167ZM24.8386 29.0102L12.5529 16.7965L9.73277 19.6332L22.0185 31.8469L24.8386 29.0102Z" fill="#F6F6F6" mask="url(#path-2-inside-1_640_596)"/>
<mask id="path-4-inside-2_640_596" fill="white">
<path d="M48 7.71429L23.4285 32.1429L11.1428 19.9291"/>
</mask>
<path d="M49.41 9.13262C50.1934 8.35386 50.1971 7.08753 49.4183 6.30421C48.6395 5.52089 47.3732 5.5172 46.5899 6.29596L49.41 9.13262ZM23.4285 32.1429L22.0185 33.5612C22.7986 34.3368 24.0585 34.3367 24.8386 33.5612L23.4285 32.1429ZM12.5529 18.5108C11.7695 17.732 10.5032 17.7357 9.72446 18.5191C8.94571 19.3024 8.94943 20.5687 9.73277 21.3475L12.5529 18.5108ZM46.5899 6.29596L22.0185 30.7245L24.8386 33.5612L49.41 9.13262L46.5899 6.29596ZM24.8386 30.7245L12.5529 18.5108L9.73277 21.3475L22.0185 33.5612L24.8386 30.7245Z" fill="#E0AA00" mask="url(#path-4-inside-2_640_596)"/>
<mask id="path-6-inside-3_640_596" fill="white">
<path d="M48 3.85712L23.4285 28.2857L11.1428 16.0719"/>
</mask>
<path d="M49.41 5.27545C50.1934 4.49668 50.1971 3.23035 49.4183 2.44703C48.6395 1.66371 47.3732 1.66002 46.5899 2.43879L49.41 5.27545ZM23.4285 28.2857L22.0185 29.7041C22.7986 30.4796 24.0585 30.4796 24.8386 29.704L23.4285 28.2857ZM12.5529 14.6536C11.7695 13.8748 10.5032 13.8786 9.72446 14.6619C8.94571 15.4452 8.94943 16.7116 9.73277 17.4903L12.5529 14.6536ZM46.5899 2.43879L22.0185 26.8674L24.8386 29.704L49.41 5.27545L46.5899 2.43879ZM24.8386 26.8673L12.5529 14.6536L9.73277 17.4903L22.0185 29.7041L24.8386 26.8673Z" fill="#E0AA00" mask="url(#path-6-inside-3_640_596)"/>
</svg>
