<svg width="102" height="102" viewBox="0 0 102 102" fill="none" xmlns="http://www.w3.org/2000/svg">
<path d="M48.5 78C50.433 78 52 76.433 52 74.5C52 72.567 50.433 71 48.5 71C46.567 71 45 72.567 45 74.5C45 76.433 46.567 78 48.5 78Z" fill="#32312F"/>
<path d="M49.5 62V57.25C52.7634 57.25 55.9535 56.275 58.6669 54.4482C61.3803 52.6214 63.4952 50.0249 64.744 46.9871C65.9929 43.9493 66.3196 40.6066 65.6829 37.3816C65.0463 34.1567 63.4748 31.1944 61.1673 28.8694C58.8597 26.5443 55.9197 24.9609 52.719 24.3195C49.5183 23.678 46.2007 24.0072 43.1857 25.2655C40.1707 26.5238 37.5938 28.6547 35.7808 31.3887C33.9677 34.1226 33 37.3369 33 40.625" stroke="#32312F" stroke-width="4" stroke-linecap="round" stroke-linejoin="round"/>
<path d="M50.5 76C52.433 76 54 74.433 54 72.5C54 70.567 52.433 69 50.5 69C48.567 69 47 70.567 47 72.5C47 74.433 48.567 76 50.5 76Z" fill="#E0AA00"/>
<path d="M51.5 60V55.25C54.7634 55.25 57.9535 54.275 60.6669 52.4482C63.3803 50.6214 65.4952 48.0249 66.744 44.9871C67.9929 41.9493 68.3196 38.6066 67.6829 35.3816C67.0463 32.1567 65.4748 29.1944 63.1673 26.8694C60.8597 24.5443 57.9197 22.9609 54.719 22.3195C51.5183 21.678 48.2007 22.0072 45.1857 23.2655C42.1707 24.5238 39.5938 26.6547 37.7808 29.3887C35.9677 32.1226 35 35.3369 35 38.625" stroke="#E0AA00" stroke-width="4" stroke-linecap="round" stroke-linejoin="round"/>
</svg>
