<svg width="102" height="104" viewBox="0 0 102 104" fill="none" xmlns="http://www.w3.org/2000/svg">
<path d="M51.7231 78.5049L71.4244 90.9869C73.9428 92.5824 77.0694 90.2094 76.3222 87.2698L70.63 64.8782C70.4697 64.2546 70.4887 63.5983 70.6848 62.985C70.8809 62.3716 71.2461 61.8261 71.7384 61.4111L89.4053 46.7066C91.7267 44.7745 90.5285 40.9219 87.5461 40.7284L64.4743 39.231C63.8528 39.1866 63.2568 38.9666 62.7556 38.5966C62.2543 38.2265 61.8685 37.7217 61.6431 37.1409L53.0382 15.4718C52.8043 14.8553 52.3884 14.3246 51.8458 13.9501C51.3031 13.5756 50.6594 13.375 50 13.375C49.3407 13.375 48.6969 13.5756 48.1543 13.9501C47.6116 14.3246 47.1957 14.8553 46.9618 15.4718L38.357 37.1409C38.1315 37.7217 37.7457 38.2265 37.2445 38.5966C36.7432 38.9666 36.1472 39.1866 35.5258 39.231L12.4539 40.7284C9.47147 40.9219 8.27332 44.7745 10.5947 46.7066L28.2616 61.4111C28.7539 61.8261 29.1192 62.3716 29.3152 62.985C29.5113 63.5983 29.5303 64.2546 29.37 64.8782L24.0912 85.6439C23.1944 89.1715 26.9465 92.0191 29.9685 90.1044L48.2769 78.5049C48.7919 78.1771 49.3896 78.003 50 78.003C50.6104 78.003 51.2082 78.1771 51.7231 78.5049V78.5049Z" stroke="#32312F" stroke-width="4" stroke-linecap="round" stroke-linejoin="round"/>
<path d="M53.7231 74.5049L73.4244 86.9869C75.9428 88.5824 79.0694 86.2094 78.3222 83.2698L72.63 60.8782C72.4697 60.2546 72.4887 59.5983 72.6848 58.985C72.8809 58.3716 73.2461 57.8261 73.7384 57.4111L91.4053 42.7066C93.7267 40.7745 92.5285 36.9219 89.5461 36.7284L66.4743 35.231C65.8528 35.1866 65.2568 34.9666 64.7556 34.5966C64.2543 34.2265 63.8685 33.7217 63.6431 33.1409L55.0382 11.4718C54.8043 10.8553 54.3884 10.3246 53.8458 9.95008C53.3031 9.57557 52.6594 9.375 52 9.375C51.3407 9.375 50.6969 9.57557 50.1543 9.95008C49.6116 10.3246 49.1957 10.8553 48.9618 11.4718L40.357 33.1409C40.1315 33.7217 39.7457 34.2265 39.2445 34.5966C38.7432 34.9666 38.1472 35.1866 37.5258 35.231L14.4539 36.7284C11.4715 36.9219 10.2733 40.7745 12.5947 42.7066L30.2616 57.4111C30.7539 57.8261 31.1192 58.3716 31.3152 58.985C31.5113 59.5983 31.5303 60.2546 31.37 60.8782L26.0912 81.6439C25.1944 85.1715 28.9465 88.0191 31.9685 86.1044L50.2769 74.5049C50.7919 74.1771 51.3896 74.003 52 74.003C52.6104 74.003 53.2082 74.1771 53.7231 74.5049V74.5049Z" stroke="#E0AA00" stroke-width="4" stroke-linecap="round" stroke-linejoin="round"/>
</svg>
