<svg width="90" height="90" viewBox="0 0 90 90" fill="none" xmlns="http://www.w3.org/2000/svg">
<path d="M55.5469 58.1836H37.9688V82.793H9.84375V7.20703H29.2322V24.7852L80.1562 40.6055V82.793H55.5469V58.1836Z" stroke="#E0AA00" stroke-width="4" stroke-miterlimit="10" stroke-linecap="round" stroke-linejoin="round"/>
</svg>
